plotly
…
## using cached file: ~/Library/Caches/R/noaa_ghcnd/USC00519397.dly

## date created (size, mb): 2021-11-05 11:20:06 (1.697)

## file min/max dates: 1965-01-01 / 2020-02-29

## using cached file: ~/Library/Caches/R/noaa_ghcnd/USS0023B17S.dly

## date created (size, mb): 2021-11-05 11:20:09 (0.916)

## file min/max dates: 1999-09-01 / 2021-11-30

weather_df

## # A tibble: 783 × 8
##    name           id          date        prcp  snow  snwd  tmax  tmin
##    <chr>          <chr>       <date>     <dbl> <dbl> <dbl> <dbl> <dbl>
##  1 CentralPark_NY USW00094728 2020-01-01     0     0     0   5     1.1
##  2 CentralPark_NY USW00094728 2020-01-02     0     0     0   9.4   0.6
##  3 CentralPark_NY USW00094728 2020-01-03    38     0     0   9.4   6.7
##  4 CentralPark_NY USW00094728 2020-01-04    69     0     0  10.6   5  
##  5 CentralPark_NY USW00094728 2020-01-05     0     0     0   5.6   1.7
##  6 CentralPark_NY USW00094728 2020-01-06    10     5     0   7.2   0  
##  7 CentralPark_NY USW00094728 2020-01-07     0     0     0   7.2   2.2
##  8 CentralPark_NY USW00094728 2020-01-08     0     0     0   5.6  -2.1
##  9 CentralPark_NY USW00094728 2020-01-09     0     0     0   1.1  -4.9
## 10 CentralPark_NY USW00094728 2020-01-10     0     0     0  12.8   0.6
## # … with 773 more rows
…
